{
  "resultCode": "SUCCESS",
  "resultMsg": {"totalRecordsNum": 10, "pageRecords": [
    { "deviceCode": "991", "stuId": "001", "building": "6#222", "typeName": "宽带", "number": 40, "recordUser": "老刘头", "recordTime": "2017-08-17 11:11:02", "remark": "备注"},
    { "deviceCode": "991", "stuId": "002", "building": "6#222", "typeName": "电视", "number": 40, "recordUser": "老刘头", "recordTime": "2017-08-17 11:11:02", "remark": "备注"},
    { "deviceCode": "991", "stuId": "003", "building": "6#222", "typeName": "洗衣机", "number": 40, "recordUser": "老刘头", "recordTime": "2017-08-17 11:11:02", "remark": "备注"},
    { "deviceCode": "991", "stuId": "004", "building": "6#222", "typeName": "电费", "number": 40, "recordUser": "老刘头", "recordTime": "2017-08-17 11:11:02", "remark": "备注"},
    { "deviceCode": "991", "stuId": "005", "building": "6#222", "typeName": "水费", "number": 40, "recordUser": "老刘头", "recordTime": "2017-08-17 11:11:02", "remark": "备注"},
    { "deviceCode": "991", "stuId": "006", "building": "6#222", "typeName": "洗衣机", "number": 40, "recordUser": "老刘头", "recordTime": "2017-08-17 11:11:02", "remark": "备注"},
    { "deviceCode": "991", "stuId": "007", "building": "6#222", "typeName": "洗衣机", "number": 40, "recordUser": "老刘头", "recordTime": "2017-08-17 11:11:02", "remark": "备注"},
    { "deviceCode": "991", "stuId": "001", "building": "6#222", "typeName": "电费", "number": 40, "recordUser": "老刘头", "recordTime": "2017-08-17 11:11:02", "remark": "备注"},
    { "deviceCode": "991", "stuId": "002", "building": "6#222", "typeName": "电费", "number": 40, "recordUser": "老刘头", "recordTime": "2017-08-17 11:11:02", "remark": "备注"},
    { "deviceCode": "991", "stuId": "003", "building": "6#222", "typeName": "电费", "number": 40, "recordUser": "老刘头", "recordTime": "2017-08-17 11:11:02", "remark": "备注"},
    { "deviceCode": "991", "stuId": "004", "building": "6#222", "typeName": "宽带", "number": 40, "recordUser": "老刘头", "recordTime": "2017-08-17 11:11:02", "remark": "备注"},
    { "deviceCode": "991", "stuId": "005", "building": "6#222", "typeName": "宽带", "number": 40, "recordUser": "老刘头", "recordTime": "2017-08-17 11:11:02", "remark": "备注"},
    { "deviceCode": "991", "stuId": "006", "building": "6#222", "typeName": "洗衣机", "number": 40, "recordUser": "老刘头", "recordTime": "2017-08-17 11:11:02", "remark": "备注"},
    { "deviceCode": "991", "stuId": "007", "building": "6#222", "typeName": "洗衣机", "number": 40, "recordUser": "老刘头", "recordTime": "2017-08-17 11:11:02", "remark": "备注"}
  ]
  }
}
